// Jest Snapshot v1, https://goo.gl/fbAQLP

exports[`InputSearch compare with snapshots 1`] = `
<input
  className="InputSearch"
  onChange={[Function]}
  value=""
/>
`;

exports[`InputSearch compare with snapshots 2`] = `
<input
  className="InputSearch"
  onChange={[Function]}
  value=""
/>
`;
